[
{
    "model": "contas.categorias",
    "pk": 1,
    "fields": {
        "categoria": "Política de Custódia de Dados",
        "data_criacao": "2021-10-19"
    }
},
{
    "model": "contas.categorias",
    "pk": 2,
    "fields": {
        "categoria": "Política de Descarte de Dados",
        "data_criacao": "2021-10-19"
    }
},
{
    "model": "contas.categorias",
    "pk": 3,
    "fields": {
        "categoria": "Política de Sigilo de Dados",
        "data_criacao": "2021-10-19"
    }
},
{
    "model": "contas.categorias",
    "pk": 4,
    "fields": {
        "categoria": "Política Formal de Backup",
        "data_criacao": "2021-10-19"
    }
}
]
